{
  "error": [
    "Whoops that wasn't supposed to happen...",
    "Somethings lurking in the code. I'm afraid of the dark...",
    "Whats up Doc? Something broke...",
    "Ouch, somebody tell Verin to fix his bot...",
    "Only you can prevent broken bots!",
    "Don't let ratty find out...",
    "Oh I'm sorry? We're you expecting a FUNCTIONAL bot?",
    "Bots broken, Apply more sebisauce to fix...",
    "Fred touched me again. Give Verin time to fix it...",
    "Whoops that wasn/t supposed to happen...",
    "The cake is a lie",
    "How was I supposed to know pepsi and keyboards don't mix?",
    "Beep Boop Beep Beep Boop Beep Boop Beep",
    "Show me where the bad Boki touched you...",
    "Ha Ha! Working bots, am I right?",
    "Verin! That kills people!",
    "99 little bugs in the code. 99 little bugs. Take one down, patch it around. 127 little bugs in the code...",
    "This.... light... Is this broken bot heaven...?",
    "Applying quick fix... Fix failed... Guess you'll just have to wait...",
    "We can pretend this never happened... right?",
    "404 Not Found! Wait... No that's not right...",
    "Requiem Contents: 4% Bad Memes, 8% Salt, 7% can't count, 98% Broken Bot",
    "Roger Doger Roger Roger Doger Why do I do this to myself...",
    "What can I say, I'm an expert at being broken",
    "'insert bad joke here'",
    "I'm trying to fix the problems I created when I tried to fix the problems\nI created when I tried to fix the problems I created when I...",
    "Its not like I meant to break... B-B-Baka",
    "Somebody call an exterminator! There are rats in the code!",
    "Row Row Row your code gently through the web socket",
    "Gonna need to have Ame fix this one, Verin has no idea...",
    "Oh to be a working bot, I dream of the day...",
    "I blame Verin for not using Linux",
    "No u",
    "Has Verin implemented backups yet? Proably not...",
    "Now new and improved with my own dedica....................."
  ],
  "prefix": [
    "Need something? My prefix is {}",
    "My prefix on this guild is {}",
    "Something tells me you're in need of my service... Here let me help, my prefix is {}",
    "Now where'd I put that prefix..? Oh! There it is... {}"
  ]
}
